…
    ## # A tibble: 3 × 7
    ##   term         estimate std_error statistic p_value lower_ci upper_ci
    ##   <chr>           <dbl>     <dbl>     <dbl>   <dbl>    <dbl>    <dbl>
    ## 1 intercept       4.48      0.125     35.8    0        4.24     4.73 
    ## 2 age            -0.009     0.003     -3.28   0.001   -0.014   -0.003
    ## 3 gender: male    0.191     0.052      3.63   0        0.087    0.294

``` r
regression_points_interaction <- get_regression_points(score_model_interaction)
regression_points_interaction
```

    ## # A tibble: 463 × 6
    ##       ID score   age gender score_hat residual
    ##    <int> <dbl> <int> <fct>      <dbl>    <dbl>
    ##  1     1   4.7    36 female      4.25    0.448
    ##  2     2   4.1    36 female      4.25   -0.152
    ##  3     3   3.9    36 female      4.25   -0.352
    ##  4     4   4.8    36 female      4.25    0.548
    ##  5     5   4.6    59 male        4.20    0.399
    ##  6     6   4.3    59 male        4.20    0.099
    ##  7     7   2.8    59 male        4.20   -1.40 
    ##  8     8   4.1    51 male        4.23   -0.133
    ##  9     9   3.4    51 male        4.23   -0.833
    ## 10    10   4.5    40 female      4.18    0.318
    ## # … with 453 more rows

### LC6.1

``` r
regression_points_parallel <- get_regression_points(score_model_parallel_slopes)
regression_points_parallel
```

    ## # A tibble: 463 × 6
    ##       ID score   age gender score_hat residual
    ##    <int> <dbl> <int> <fct>      <dbl>    <dbl>
    ##  1     1   4.7    36 female      4.17    0.528
    ##  2     2   4.1    36 female      4.17   -0.072
    ##  3     3   3.9    36 female      4.17   -0.272
    ##  4     4   4.8    36 female      4.17    0.628
    ##  5     5   4.6    59 male        4.16    0.437
    ##  6     6   4.3    59 male        4.16    0.137
    ##  7     7   2.8    59 male        4.16   -1.36 
    ##  8     8   4.1    51 male        4.23   -0.132
    ##  9     9   3.4    51 male        4.23   -0.832
    ## 10    10   4.5    40 female      4.14    0.363
    ## # … with 453 more rows
…
    ## # A tibble: 3 × 7
    ##   term          estimate std_error statistic p_value lower_ci upper_ci
    ##   <chr>            <dbl>     <dbl>     <dbl>   <dbl>    <dbl>    <dbl>
    ## 1 intercept      -270.      44.8       -6.02       0  -358.    -181.  
    ## 2 credit_rating     2.59     0.074     34.8        0     2.45     2.74
    ## 3 age              -2.35     0.668     -3.52       0    -3.66    -1.04

### 6.2.3

``` r
get_regression_points(debt_model)
```

    ## # A tibble: 400 × 6
    ##       ID  debt credit_limit income debt_hat residual
    ##    <int> <int>        <int>  <dbl>    <dbl>    <dbl>
    ##  1     1   333         3606   14.9     454.   -121. 
    ##  2     2   903         6645  106.      559.    344. 
    ##  3     3   580         7075  105.      683.   -103. 
    ##  4     4   964         9504  149.      986.    -21.7
    ##  5     5   331         4897   55.9     481.   -150. 
    ##  6     6  1151         8047   80.2    1127.     23.6
    ##  7     7   203         3388   21.0     349.   -146. 
    ##  8     8   872         7114   71.4     948.    -76.0
    ##  9     9   279         3300   15.1     371.    -92.2
    ## 10    10  1350         6819   71.1     873.    477. 
    ## # … with 390 more rows
…
    ## # A tibble: 4 × 7
    ##   term          estimate std_error statistic p_value lower_ci upper_ci
    ##   <chr>            <dbl>     <dbl>     <dbl>   <dbl>    <dbl>    <dbl>
    ## 1 intercept       588.       7.61     77.3     0       573.     603.  
    ## 2 perc_disadvan    -2.78     0.106   -26.1     0        -2.99    -2.57
    ## 3 size: medium    -11.9      7.54     -1.58    0.115   -26.7      2.91
    ## 4 size: large      -6.36     6.92     -0.919   0.359   -20.0      7.26

### 6.3.2

``` r
get_regression_points(model_2_interaction)
```

    ## # A tibble: 332 × 6
    ##       ID average_sat_math perc_disadvan size   average_sat_math_hat residual
    ##    <int>            <dbl>         <dbl> <fct>                 <dbl>    <dbl>
    ##  1     1              516          21.5 medium                 517.    -0.67
    ##  2     2              514          22.7 large                  519.    -4.77
    ##  3     3              534          14.6 large                  541.    -6.99
    ##  4     4              581           6.3 large                  564.    17.2 
    ##  5     5              592          10.3 large                  553.    39.2 
    ##  6     6              576          10.3 large                  553.    23.2 
    ##  7     7              504          25.6 large                  511.    -6.82
    ##  8     8              505          15.2 large                  539.   -34.3 
    ##  9     9              481          23.8 small                  525.   -43.5 
    ## 10    10              513          25.5 large                  511.     1.91
    ## # … with 322 more rows
…
