…
### 7.1.3

``` r
tactile_prop_red
```

    ## # A tibble: 33 × 4
    ##    group            replicate red_balls prop_red
    ##    <chr>                <int>     <int>    <dbl>
    ##  1 Ilyas, Yohan             1        21     0.42
    ##  2 Morgan, Terrance         2        17     0.34
    ##  3 Martin, Thomas           3        21     0.42
    ##  4 Clark, Frank             4        21     0.42
    ##  5 Riddhi, Karina           5        18     0.36
    ##  6 Andrew, Tyler            6        19     0.38
    ##  7 Julia                    7        19     0.38
    ##  8 Rachel, Lauren           8        11     0.22
    ##  9 Daniel, Caroline         9        15     0.3 
    ## 10 Josh, Maeve             10        17     0.34
    ## # … with 23 more rows
…
