…
## 9.3

### 9.3.1

``` r
promotions %>%
  specify(formula = decision ~ gender,
          success = "promoted")
```

    ## Response: decision (factor)
    ## Explanatory: gender (factor)
    ## # A tibble: 48 × 2
    ##    decision gender
    ##    <fct>    <fct> 
    ##  1 promoted male  
    ##  2 promoted male  
    ##  3 promoted male  
    ##  4 promoted male  
    ##  5 promoted male  
    ##  6 promoted male  
    ##  7 promoted male  
    ##  8 promoted male  
    ##  9 promoted male  
    ## 10 promoted male  
    ## # … with 38 more rows

``` r
promotions %>%
  specify(formula = decision ~ gender,
          success = "promoted") %>%
  hypothesize(null = "independence")
```

    ## Response: decision (factor)
    ## Explanatory: gender (factor)
    ## Null Hypothesis: independence
    ## # A tibble: 48 × 2
    ##    decision gender
    ##    <fct>    <fct> 
    ##  1 promoted male  
    ##  2 promoted male  
    ##  3 promoted male  
    ##  4 promoted male  
    ##  5 promoted male  
    ##  6 promoted male  
    ##  7 promoted male  
    ##  8 promoted male  
    ##  9 promoted male  
    ## 10 promoted male  
    ## # … with 38 more rows
``` r
promotions_generate <- promotions %>%
  specify(formula = decision ~ gender,
          success = "promoted") %>%
  hypothesize(null = "independence") %>%
  generate(reps = 1000, 
           type = "permute")

promotions_generate
```

    ## Response: decision (factor)
    ## Explanatory: gender (factor)
    ## Null Hypothesis: independence
    ## # A tibble: 48,000 × 3
    ## # Groups:   replicate [1,000]
    ##    decision gender replicate
    ##    <fct>    <fct>      <int>
    ##  1 not      male           1
    ##  2 promoted male           1
    ##  3 promoted male           1
    ##  4 not      male           1
    ##  5 promoted male           1
    ##  6 not      male           1
    ##  7 promoted male           1
    ##  8 promoted male           1
    ##  9 promoted male           1
    ## 10 not      male           1
    ## # … with 47,990 more rows
…
null_distribution
```

    ## Response: decision (factor)
    ## Explanatory: gender (factor)
    ## Null Hypothesis: independence
    ## # A tibble: 1,000 × 2
    ##    replicate    stat
    ##        <int>   <dbl>
    ##  1         1 -0.0417
    ##  2         2  0.0417
    ##  3         3  0.208 
    ##  4         4  0.125 
    ##  5         5  0.125 
    ##  6         6  0.208 
    ##  7         7  0.0417
    ##  8         8 -0.125 
    ##  9         9  0.208 
    ## 10        10 -0.0417
    ## # … with 990 more rows
…
bootstrap_distribution
```

    ## Response: decision (factor)
    ## Explanatory: gender (factor)
    ## # A tibble: 1,000 × 2
    ##    replicate     stat
    ##        <int>    <dbl>
    ##  1         1  0.236  
    ##  2         2  0.208  
    ##  3         3  0.25   
    ##  4         4 -0.00350
    ##  5         5  0.315  
    ##  6         6  0.407  
    ##  7         7  0.119  
    ##  8         8  0.126  
    ##  9         9  0.00949
    ## 10        10  0.343  
    ## # … with 990 more rows
…
