…
``` r
resampled_means <- pennies_resamples %>%
  group_by(name) %>%
  summarise(mean_year = mean(year))

resampled_means
```

    ## # A tibble: 35 × 2
    ##    name      mean_year
    ##    <chr>         <dbl>
    ##  1 Arianna       1992.
    ##  2 Artemis       1996.
    ##  3 Bea           1996.
    ##  4 Camryn        1997.
    ##  5 Cassandra     1991.
    ##  6 Cindy         1995.
    ##  7 Claire        1996.
    ##  8 Dahlia        1998.
    ##  9 Dan           1994.
    ## 10 Eindra        1994.
    ## # … with 25 more rows
…
## 8.2

### 8.1

``` r
set.seed(42)

virtual_resample <- pennies_sample %>%
  rep_sample_n(size = 50, replace = TRUE)

virtual_resample
```

    ## # A tibble: 50 × 3
    ## # Groups:   replicate [1]
    ##    replicate    ID  year
    ##        <int> <int> <dbl>
    ##  1         1    49  2006
    ##  2         1    37  1962
    ##  3         1     1  2002
    ##  4         1    25  1979
    ##  5         1    10  2000
    ##  6         1    36  2015
    ##  7         1    18  1996
    ##  8         1    49  2006
    ##  9         1    47  1982
    ## 10         1    24  2017
    ## # … with 40 more rows
…
    ## # A tibble: 1 × 2
    ##   replicate resample_mean
    ##       <int>         <dbl>
    ## 1         1         1995.

``` r
virtual_resamples <- pennies_sample %>%
  rep_sample_n(size = 50, 
               replace = TRUE,
               reps = 35)

virtual_resamples
```

    ## # A tibble: 1,750 × 3
    ## # Groups:   replicate [35]
    ##    replicate    ID  year
    ##        <int> <int> <dbl>
    ##  1         1    50  2017
    ##  2         1    35  1985
    ##  3         1    24  2017
    ##  4         1    23  1998
    ##  5         1    49  2006
    ##  6         1    26  1979
    ##  7         1    50  2017
    ##  8         1     6  1983
    ##  9         1     6  1983
    ## 10         1     2  1986
    ## # … with 1,740 more rows

``` r
virtual_resampled_means <- virtual_resamples %>%
  group_by(replicate) %>%
  summarise(mean_year = mean(year))

virtual_resampled_means
```

    ## # A tibble: 35 × 2
    ##    replicate mean_year
    ##        <int>     <dbl>
    ##  1         1     1999.
    ##  2         2     1996.
    ##  3         3     1993.
    ##  4         4     1995.
    ##  5         5     1993.
    ##  6         6     1996.
    ##  7         7     1995.
    ##  8         8     1996.
    ##  9         9     1998.
    ## 10        10     1995.
    ## # … with 25 more rows
…
``` r
virtual_resampled_means <- pennies_sample %>%
  rep_sample_n(size = 50, 
               replace = TRUE,
               reps = 1000) %>%
  group_by(replicate) %>%
  summarise(mean_year = mean(year))

virtual_resampled_means
```

    ## # A tibble: 1,000 × 2
    ##    replicate mean_year
    ##        <int>     <dbl>
    ##  1         1     1996.
    ##  2         2     1999.
    ##  3         3     1994.
    ##  4         4     1998.
    ##  5         5     1995.
    ##  6         6     1992 
    ##  7         7     1993.
    ##  8         8     1994.
    ##  9         9     1993.
    ## 10        10     1994.
    ## # … with 990 more rows
…
