…
### 5.1.3

``` r
regression_points_1 <- get_regression_points(score_model_1)

regression_points_1
```

    ## # A tibble: 463 × 5
    ##       ID score bty_avg score_hat residual
    ##    <int> <dbl>   <dbl>     <dbl>    <dbl>
    ##  1     1   4.7    5         4.21    0.486
    ##  2     2   4.1    5         4.21   -0.114
    ##  3     3   3.9    5         4.21   -0.314
    ##  4     4   4.8    5         4.21    0.586
    ##  5     5   4.6    3         4.08    0.52 
    ##  6     6   4.3    3         4.08    0.22 
    ##  7     7   2.8    3         4.08   -1.28 
    ##  8     8   4.1    3.33      4.10   -0.002
    ##  9     9   3.4    3.33      4.10   -0.702
    ## 10    10   4.5    3.17      4.09    0.409
    ## # … with 453 more rows

### LC5.3

``` r
regression_points_2 <- get_regression_points(score_model_2)

regression_points_2
```

    ## # A tibble: 463 × 5
    ##       ID score   age score_hat residual
    ##    <int> <dbl> <int>     <dbl>    <dbl>
    ##  1     1   4.7    36      4.25    0.452
    ##  2     2   4.1    36      4.25   -0.148
    ##  3     3   3.9    36      4.25   -0.348
    ##  4     4   4.8    36      4.25    0.552
    ##  5     5   4.6    59      4.11    0.488
    ##  6     6   4.3    59      4.11    0.188
    ##  7     7   2.8    59      4.11   -1.31 
    ##  8     8   4.1    51      4.16   -0.059
    ##  9     9   3.4    51      4.16   -0.759
    ## 10    10   4.5    40      4.22    0.276
    ## # … with 453 more rows
…
